\BOOKMARK [1][-]{section.1}{Introduction}{}% 1
\BOOKMARK [1][-]{section.2}{OWASP Top 10 Mobile Risks}{}% 2
\BOOKMARK [2][-]{subsection.2.1}{M1 - Insecure Data Storage}{section.2}% 3
\BOOKMARK [2][-]{subsection.2.2}{M2 - Weak Server Side Controls}{section.2}% 4
\BOOKMARK [2][-]{subsection.2.3}{M3 - Insufficient Transport Layer protection}{section.2}% 5
\BOOKMARK [2][-]{subsection.2.4}{M4 - Client Side Injection}{section.2}% 6
\BOOKMARK [2][-]{subsection.2.5}{M5 - Poor Authorization and Authentication}{section.2}% 7
\BOOKMARK [2][-]{subsection.2.6}{M6 - Improper Session Handling}{section.2}% 8
\BOOKMARK [2][-]{subsection.2.7}{M7 - Security Decisions Via Untrusted Inputs}{section.2}% 9
\BOOKMARK [2][-]{subsection.2.8}{M8 - Side Channel Data Leakage}{section.2}% 10
\BOOKMARK [2][-]{subsection.2.9}{M9 - Broken Cryptography}{section.2}% 11
\BOOKMARK [2][-]{subsection.2.10}{M10 Sensitive Information Disclosure}{section.2}% 12
\BOOKMARK [1][-]{section.3}{The Application}{}% 13
\BOOKMARK [2][-]{subsection.3.1}{Application Vulnerabilities}{section.3}% 14
\BOOKMARK [3][-]{subsubsection.3.1.1}{M1 - Insecure Data Storage}{subsection.3.1}% 15
\BOOKMARK [3][-]{subsubsection.3.1.2}{M4 - Client Side Injection}{subsection.3.1}% 16
\BOOKMARK [3][-]{subsubsection.3.1.3}{M8 - Side Channel Data Leakage}{subsection.3.1}% 17
\BOOKMARK [3][-]{subsubsection.3.1.4}{M9 - Broken Cryptography}{subsection.3.1}% 18
\BOOKMARK [3][-]{subsubsection.3.1.5}{M10 - Sensitive Information Disclosure}{subsection.3.1}% 19
\BOOKMARK [2][-]{subsection.3.2}{Proposed Corrections}{section.3}% 20
\BOOKMARK [3][-]{subsubsection.3.2.1}{M1 - Insecure Data Storage}{subsection.3.2}% 21
\BOOKMARK [3][-]{subsubsection.3.2.2}{M4 - Client Side Injection}{subsection.3.2}% 22
\BOOKMARK [3][-]{subsubsection.3.2.3}{M8 - Side Channel Data Leakage}{subsection.3.2}% 23
\BOOKMARK [3][-]{subsubsection.3.2.4}{M9 - Broken Cryptographic}{subsection.3.2}% 24
\BOOKMARK [3][-]{subsubsection.3.2.5}{M10 - Sensitive Information Disclosure}{subsection.3.2}% 25
\BOOKMARK [1][-]{section.4}{Conclusions}{}% 26
