\relax 
\providecommand\HyperFirstAtBeginDocument{\AtBeginDocument}
\HyperFirstAtBeginDocument{\ifx\hyper@anchor\@undefined
\global\let\oldcontentsline\contentsline
\gdef\contentsline#1#2#3#4{\oldcontentsline{#1}{#2}{#3}}
\global\let\oldnewlabel\newlabel
\gdef\newlabel#1#2{\newlabelxx{#1}#2}
\gdef\newlabelxx#1#2#3#4#5#6{\oldnewlabel{#1}{{#2}{#3}}}
\AtEndDocument{\ifx\hyper@anchor\@undefined
\let\contentsline\oldcontentsline
\let\newlabel\oldnewlabel
\fi}
\fi}
\global\let\hyper@last\relax 
\gdef\HyperFirstAtBeginDocument#1{#1}
\providecommand\HyField@AuxAddToFields[1]{}
\@writefile{toc}{\contentsline {section}{\numberline {1}Introduction}{\thepage }{section.1}}
\@writefile{toc}{\contentsline {section}{\numberline {2}OWASP Top 10 Mobile Risks}{\thepage }{section.2}}
\@writefile{toc}{\contentsline {subsection}{\numberline {2.1}M1 - Insecure Data Storage}{\thepage }{subsection.2.1}}
\@writefile{toc}{\contentsline {subsection}{\numberline {2.2}M2 - Weak Server Side Controls}{\thepage }{subsection.2.2}}
\@writefile{toc}{\contentsline {subsection}{\numberline {2.3}M3 - Insufficient Transport Layer protection}{\thepage }{subsection.2.3}}
\@writefile{toc}{\contentsline {subsection}{\numberline {2.4}M4 - Client Side Injection}{\thepage }{subsection.2.4}}
\@writefile{toc}{\contentsline {subsection}{\numberline {2.5}M5 - Poor Authorization and Authentication}{\thepage }{subsection.2.5}}
\@writefile{toc}{\contentsline {subsection}{\numberline {2.6}M6 - Improper Session Handling}{\thepage }{subsection.2.6}}
\@writefile{toc}{\contentsline {subsection}{\numberline {2.7}M7 - Security Decisions Via Untrusted Inputs}{\thepage }{subsection.2.7}}
\@writefile{toc}{\contentsline {subsection}{\numberline {2.8}M8 - Side Channel Data Leakage}{\thepage }{subsection.2.8}}
\@writefile{toc}{\contentsline {subsection}{\numberline {2.9}M9 - Broken Cryptography}{\thepage }{subsection.2.9}}
\@writefile{toc}{\contentsline {subsection}{\numberline {2.10}M10 Sensitive Information Disclosure}{\thepage }{subsection.2.10}}
\@writefile{toc}{\contentsline {section}{\numberline {3}The Application}{\thepage }{section.3}}
\@writefile{lof}{\contentsline {figure}{\numberline {1}{\ignorespaces Application screenshot of signup menu}}{\thepage }{figure.1}}
\newlabel{figure:signup}{{1}{\thepage }{Application screenshot of signup menu\relax }{figure.1}{}}
\@writefile{toc}{\contentsline {subsection}{\numberline {3.1}Application Vulnerabilities}{\thepage }{subsection.3.1}}
\newlabel{subsection:applicationVulnerabilities}{{3.1}{\thepage }{Application Vulnerabilities\relax }{subsection.3.1}{}}
\@writefile{toc}{\contentsline {subsubsection}{\numberline {3.1.1}M1 - Insecure Data Storage}{\thepage }{subsubsection.3.1.1}}
\newlabel{subsubsection:m1}{{3.1.1}{\thepage }{M1 - Insecure Data Storage\relax }{subsubsection.3.1.1}{}}
\@writefile{toc}{\contentsline {subsubsection}{\numberline {3.1.2}M4 - Client Side Injection}{\thepage }{subsubsection.3.1.2}}
\@writefile{toc}{\contentsline {subsubsection}{\numberline {3.1.3}M8 - Side Channel Data Leakage}{\thepage }{subsubsection.3.1.3}}
\@writefile{toc}{\contentsline {subsubsection}{\numberline {3.1.4}M9 - Broken Cryptography}{\thepage }{subsubsection.3.1.4}}
\@writefile{toc}{\contentsline {subsubsection}{\numberline {3.1.5}M10 - Sensitive Information Disclosure}{\thepage }{subsubsection.3.1.5}}
\@writefile{toc}{\contentsline {subsection}{\numberline {3.2}Proposed Corrections}{\thepage }{subsection.3.2}}
\@writefile{toc}{\contentsline {subsubsection}{\numberline {3.2.1}M1 - Insecure Data Storage}{\thepage }{subsubsection.3.2.1}}
\@writefile{toc}{\contentsline {subsubsection}{\numberline {3.2.2}M4 - Client Side Injection}{\thepage }{subsubsection.3.2.2}}
\@writefile{toc}{\contentsline {subsubsection}{\numberline {3.2.3}M8 - Side Channel Data Leakage}{\thepage }{subsubsection.3.2.3}}
\@writefile{toc}{\contentsline {subsubsection}{\numberline {3.2.4}M9 - Broken Cryptographic}{\thepage }{subsubsection.3.2.4}}
\@writefile{toc}{\contentsline {subsubsection}{\numberline {3.2.5}M10 - Sensitive Information Disclosure}{\thepage }{subsubsection.3.2.5}}
\@writefile{toc}{\contentsline {section}{\numberline {4}Conclusions}{\thepage }{section.4}}
